%YAML 1.1
%TAG !u! tag:unity3d.com,2011:
--- !u!1001 &6548977224583083493
PrefabInstance:
  m_ObjectHideFlags: 0
  serializedVersion: 2
  m_Modification:
    serializedVersion: 3
    m_TransformParent: {fileID: 0}
    m_Modifications:
    - target: {fileID: 5559383883800818844, guid: 60971aa4f25248d4e9db832d7ad62926,
        type: 3}
      propertyPath: m_Name
      value: Item
      objectReference: {fileID: 0}
    - target: {fileID: 5739087869119248181, guid: 60971aa4f25248d4e9db832d7ad62926,
        type: 3}
      propertyPath: m_Color.b
      value: 0
      objectReference: {fileID: 0}
    - target: {fileID: 5739087869119248181, guid: 60971aa4f25248d4e9db832d7ad62926,
        type: 3}
      propertyPath: m_Color.g
      value: 0.8135679
      objectReference: {fileID: 0}
    - target: {fileID: 5739087869119248181, guid: 60971aa4f25248d4e9db832d7ad62926,
        type: 3}
      propertyPath: m_Color.r
      value: 1
      objectReference: {fileID: 0}
    - target: {fileID: 7742202925506673356, guid: 60971aa4f25248d4e9db832d7ad62926,
        type: 3}
      propertyPath: m_RootOrder
      value: 0
      objectReference: {fileID: 0}
    - target: {fileID: 7742202925506673356, guid: 60971aa4f25248d4e9db832d7ad62926,
        type: 3}
      propertyPath: m_LocalPosition.x
      value: 0
      objectReference: {fileID: 0}
    - target: {fileID: 7742202925506673356, guid: 60971aa4f25248d4e9db832d7ad62926,
        type: 3}
      propertyPath: m_LocalPosition.y
      value: 0
      objectReference: {fileID: 0}
    - target: {fileID: 7742202925506673356, guid: 60971aa4f25248d4e9db832d7ad62926,
        type: 3}
      propertyPath: m_LocalPosition.z
      value: 0
      objectReference: {fileID: 0}
    - target: {fileID: 7742202925506673356, guid: 60971aa4f25248d4e9db832d7ad62926,
        type: 3}
      propertyPath: m_LocalRotation.w
      value: 1
      objectReference: {fileID: 0}
    - target: {fileID: 7742202925506673356, guid: 60971aa4f25248d4e9db832d7ad62926,
        type: 3}
      propertyPath: m_LocalRotation.x
      value: 0
      objectReference: {fileID: 0}
    - target: {fileID: 7742202925506673356, guid: 60971aa4f25248d4e9db832d7ad62926,
        type: 3}
      propertyPath: m_LocalRotation.y
      value: 0
      objectReference: {fileID: 0}
    - target: {fileID: 7742202925506673356, guid: 60971aa4f25248d4e9db832d7ad62926,
        type: 3}
      propertyPath: m_LocalRotation.z
      value: 0
      objectReference: {fileID: 0}
    - target: {fileID: 7742202925506673356, guid: 60971aa4f25248d4e9db832d7ad62926,
        type: 3}
      propertyPath: m_LocalEulerAnglesHint.x
      value: 0
      objectReference: {fileID: 0}
    - target: {fileID: 7742202925506673356, guid: 60971aa4f25248d4e9db832d7ad62926,
        type: 3}
      propertyPath: m_LocalEulerAnglesHint.y
      value: 0
      objectReference: {fileID: 0}
    - target: {fileID: 7742202925506673356, guid: 60971aa4f25248d4e9db832d7ad62926,
        type: 3}
      propertyPath: m_LocalEulerAnglesHint.z
      value: 0
      objectReference: {fileID: 0}
    m_RemovedComponents: []
    m_RemovedGameObjects: []
    m_AddedGameObjects: []
    m_AddedComponents: []
  m_SourcePrefab: {fileID: 100100000, guid: 60971aa4f25248d4e9db832d7ad62926, type: 3}
