%YAML 1.1
%TAG !u! tag:unity3d.com,2011:
--- !u!114 &11400000
MonoBehaviour:
  m_ObjectHideFlags: 0
  m_CorrespondingSourceObject: {fileID: 0}
  m_PrefabInstance: {fileID: 0}
  m_PrefabAsset: {fileID: 0}
  m_GameObject: {fileID: 0}
  m_Enabled: 1
  m_EditorHideFlags: 0
  m_Script: {fileID: 11500000, guid: 0bb1b27b0cb3428eb69e655a4ef0512c, type: 3}
  m_Name: Copper
  m_EditorClassIdentifier: 
  validators: []
  effects:
  - <Metric>k__BackingField: 09000000
    <Multiplier>k__BackingField: 0
    <AdditiveModifier>k__BackingField: 3
  triPhase: 1
  tags:
  - material
  - metal
  - conductive
